<?xml version="1.0" encoding="utf-8"?>
<!-- Generator: Adobe Illustrator 21.0.2, SVG Export Plug-In . SVG Version: 6.00 Build 0)  -->
<svg version="1.1" id="Layer_1" xmlns="http://www.w3.org/2000/svg" xmlns:xlink="http://www.w3.org/1999/xlink" x="0px" y="0px"
	 viewBox="0 0 60 55" style="enable-background:new 0 0 60 55;" xml:space="preserve">
<style type="text/css">
	.st0{clip-path:url(#SVGID_2_);}
	.st1{fill:#E24329;}
	.st2{fill:#FC6D26;}
	.st3{fill:#FCA326;}
	.st4{fill:#8C929D;}
	.st5{fill:#373D47;}
	.st6{fill:#37474F;}
	.st7{fill:#554488;}
	.st8{fill:#6B4FBB;}
	.st9{fill:#FFFFFF;}
</style>
<g>
	<path class="st2" d="M59.884,31.569l-3.362-10.279l-6.65-20.389c-0.341-1.042-1.827-1.042-2.181,0l-6.65,20.376H18.946
		l-6.65-20.376c-0.341-1.042-1.827-1.042-2.181,0L3.477,21.278L0.116,31.568c-0.304,0.934,0.025,1.964,0.829,2.546L29.995,55.12
		l29.051-21.006c0.804-0.582,1.145-1.612,0.84-2.546"/>
	<path class="st1" d="M30,55.107l11.048-33.829H18.952L30,55.107z"/>
	<path class="st2" d="M29.992,55.107L18.944,21.279H3.474L29.992,55.107z"/>
	<path class="st3" d="M3.47,21.289L0.109,31.567c-0.304,0.933,0.025,1.964,0.829,2.546l29.051,21.006L3.471,21.289"/>
	<path class="st1" d="M3.474,21.289h15.482L12.294,0.913c-0.341-1.043-1.827-1.043-2.181,0L3.474,21.289"/>
	<path class="st2" d="M30,55.107l11.048-33.829h15.482L30,55.107z"/>
	<path class="st3" d="M56.521,21.289l3.362,10.279c0.304,0.933-0.024,1.964-0.829,2.546L30.002,55.107L56.52,21.289"/>
	<path class="st1" d="M56.531,21.289H41.049l6.65-20.376c0.341-1.043,1.827-1.043,2.181,0L56.531,21.289"/>
</g>
<g>
	<path class="st9" d="M13.053,26.875h9.241v3.168h-5.457v2.244h4.665v3.169h-4.665v2.553h5.677v3.168h-9.461V26.875z"/>
	<path class="st9" d="M25.285,26.875h9.241v3.168h-5.457v2.244h4.665v3.169h-4.665v2.553h5.677v3.168h-9.461V26.875z"/>
	<path class="st9" d="M38.733,36.798c1.013,0.814,2.288,1.387,3.345,1.387c1.144,0,1.628-0.374,1.628-1.013
		c0-0.682-0.726-0.901-1.937-1.386l-1.782-0.748c-1.54-0.616-2.882-1.914-2.882-3.982c0-2.442,2.2-4.444,5.324-4.444
		c1.629,0,3.433,0.615,4.753,1.914l-1.893,2.376c-0.968-0.683-1.804-1.034-2.86-1.034c-0.924,0-1.496,0.33-1.496,0.968
		c0,0.683,0.814,0.925,2.112,1.431l1.738,0.682c1.782,0.704,2.795,1.937,2.795,3.917c0,2.42-2.024,4.576-5.589,4.576
		c-1.805,0-3.873-0.66-5.413-2.046L38.733,36.798z"/>
</g>
</svg>
